module gitlab.com/hotmall/gredis

go 1.21

require (
	github.com/hotmall/commandline v1.5.0
	github.com/redis/go-redis/v9 v9.4.0
	github.com/stretchr/testify v1.8.4
)

require (
	github.com/cespare/xxhash/v2 v2.2.0 // indirect
	github.com/davecgh/go-spew v1.1.1 // indirect
	github.com/dgryski/go-rendezvous v0.0.0-20200823014737-9f7001d12a5f // indirect
	github.com/pmezard/go-difflib v1.0.0 // indirect
	gopkg.in/check.v1 v1.0.0-20201130134442-10cb98267c6c // indirect
	gopkg.in/yaml.v3 v3.0.1 // indirect
)
